Concept Network - Search textrank for concepts — fst_cn_search • finnsurveytext
…
pos_filter
List of UPOS tags for inclusion, default is `NULL` to
include all UPOS tags.

    Value

Dataframe of n-grams containing searched terms

    Examples

con1 <- "elintaso, köyhä, ihminen"
fst_cn_search(conllu_dev_q11_1_nltk, con1)
#> # A tibble: 43 × 5
#>    keyword                                  ngram  freq word1       word2      
#>    <chr>                                    <int> <int> <chr>       <chr>      
#>  1 ihminen-elää                                 2     5 ihminen     elää       
#>  2 suuri-osa-ihminen-elää-köyhyysraja           5     4 suuri       osa        
#>  3 suuri-osa-ihminen-elää-köyhyysraja           5     4 osa         ihminen    
#>  4 suuri-osa-ihminen-elää-köyhyysraja           5     4 ihminen     elää       
#>  5 suuri-osa-ihminen-elää-köyhyysraja           5     4 elää        köyhyysraja
#>  6 osa-ihminen-elää-köyhyysraja-alapuolella     5     4 osa         ihminen    
#>  7 osa-ihminen-elää-köyhyysraja-alapuolella     5     4 ihminen     elää       
#>  8 osa-ihminen-elää-köyhyysraja-alapuolella     5     4 elää        köyhyysraja
#>  9 osa-ihminen-elää-köyhyysraja-alapuolella     5     4 köyhyysraja alapuolella
#> 10 ihminen-elintaso                             2     3 ihminen     elintaso   
#> # ℹ 33 more rows

con2 <- "kehitysmaa, auttaa, pyrkiä, maa, ihminen"
pf1 <- c("NOUN", "ADV", "ADJ")
fst_cn_search(conllu_dev_q11_2_nltk, con2, pos_filter = pf1)
#> # A tibble: 52 × 5
#>    keyword               ngram  freq word1      word2     
#>    <chr>                 <int> <int> <chr>      <chr>     
#>  1 kehitysmaa-ihminen        2    31 kehitysmaa ihminen   
#>  2 kehitysmaa-olo            2    26 kehitysmaa olo       
#>  3 kehitysmaa-asukas         2    18 kehitysmaa asukas    
#>  4 kehitysmaa-tilanne        2    11 kehitysmaa tilanne   
#>  5 kehitysmaa-elinolo        2     7 kehitysmaa elinolo   
#>  6 kehitysmaa-kehitys        2     6 kehitysmaa kehitys   
#>  7 kehitysmaa-kehitysmaa     2     6 kehitysmaa kehitysmaa
#>  8 ihminen-olo               2     6 ihminen    olo       
#>  9 maa-olo                   2     5 maa        olo       
#> 10 ihminen-kehitysmaa        2     5 ihminen    kehitysmaa
#> # ℹ 42 more rows

con3 <- "köyhyys, nälänhätä, sota, ilmastonmuutos, puute"
fst_cn_search(conllu_dev_q11_3_nltk, con3, pos_filter = "NOUN")
#> # A tibble: 50 × 5
#>    keyword                  ngram  freq word1          word2         
#>    <chr>                    <int> <int> <chr>          <chr>         
#>  1 sota-nälänhätä               2    11 sota           nälänhätä     
#>  2 nälänhätä-sota               2     9 nälänhätä      sota          
#>  3 köyhyys-nälänhätä            2     6 köyhyys        nälänhätä     
#>  4 köyhyys-sota                 2     5 köyhyys        sota          
#>  5 nälänhätä-köyhyys            2     5 nälänhätä      köyhyys       
#>  6 nälänhätä-ilmastonmuutos     2     4 nälänhätä      ilmastonmuutos
#>  7 sota-köyhyys                 2     4 sota           köyhyys       
#>  8 ilmastonmuutos-nälänhätä     2     4 ilmastonmuutos nälänhätä     
#>  9 nälkä-köyhyys-sota           3     3 nälkä          köyhyys       
#> 10 nälkä-köyhyys-sota           3     3 köyhyys        sota          
#> # ℹ 40 more rows
…
